ID	D1	D2	D3	D4
set1	5.1	3.5	1.4	0.2
set2	4.9	3	1.4	0.2
set3	4.7	3.2	1.3	0.2
set4	4.6	3.1	1.5	0.2
set5	5	3.6	1.4	0.2
set6	5.4	3.9	1.7	0.4
set7	4.6	3.4	1.4	0.3
set8	5	3.4	1.5	0.2
set9	4.4	2.9	1.4	0.2
set10	4.9	3.1	1.5	0.1
set11	5.4	3.7	1.5	0.2
set12	4.8	3.4	1.6	0.2
set13	4.8	3	1.4	0.1
set14	4.3	3	1.1	0.1
set15	5.8	4	1.2	0.2
set16	5.7	4.4	1.5	0.4
set17	5.4	3.9	1.3	0.4
set18	5.1	3.5	1.4	0.3
set19	5.7	3.8	1.7	0.3
set20	5.1	3.8	1.5	0.3
set21	5.4	3.4	1.7	0.2
set22	5.1	3.7	1.5	0.4
set23	4.6	3.6	1	0.2
set24	5.1	3.3	1.7	0.5
set25	4.8	3.4	1.9	0.2
set26	5	3	1.6	0.2
set27	5	3.4	1.6	0.4
set28	5.2	3.5	1.5	0.2
set29	5.2	3.4	1.4	0.2
set30	4.7	3.2	1.6	0.2
set31	4.8	3.1	1.6	0.2
set32	5.4	3.4	1.5	0.4
set33	5.2	4.1	1.5	0.1
set34	5.5	4.2	1.4	0.2
set35	4.9	3.1	1.5	0.1
set36	5	3.2	1.2	0.2
set37	5.5	3.5	1.3	0.2
set38	4.9	3.1	1.5	0.1
set39	4.4	3	1.3	0.2
set40	5.1	3.4	1.5	0.2
set41	5	3.5	1.3	0.3
set42	4.5	2.3	1.3	0.3
set43	4.4	3.2	1.3	0.2
set44	5	3.5	1.6	0.6
set45	5.1	3.8	1.9	0.4
set46	4.8	3	1.4	0.3
set47	5.1	3.8	1.6	0.2
set48	4.6	3.2	1.4	0.2
set49	5.3	3.7	1.5	0.2
set50	5	3.3	1.4	0.2
ver51	7	3.2	4.7	1.4
ver52	6.4	3.2	4.5	1.5
ver53	6.9	3.1	4.9	1.5
ver54	5.5	2.3	4	1.3
ver55	6.5	2.8	4.6	1.5
ver56	5.7	2.8	4.5	1.3
ver57	6.3	3.3	4.7	1.6
ver58	4.9	2.4	3.3	1
ver59	6.6	2.9	4.6	1.3
ver60	5.2	2.7	3.9	1.4
ver61	5	2	3.5	1
ver62	5.9	3	4.2	1.5
ver63	6	2.2	4	1
ver64	6.1	2.9	4.7	1.4
ver65	5.6	2.9	3.6	1.3
ver66	6.7	3.1	4.4	1.4
ver67	5.6	3	4.5	1.5
ver68	5.8	2.7	4.1	1
ver69	6.2	2.2	4.5	1.5
ver70	5.6	2.5	3.9	1.1
ver71	5.9	3.2	4.8	1.8
ver72	6.1	2.8	4	1.3
ver73	6.3	2.5	4.9	1.5
ver74	6.1	2.8	4.7	1.2
ver75	6.4	2.9	4.3	1.3
ver76	6.6	3	4.4	1.4
ver77	6.8	2.8	4.8	1.4
ver78	6.7	3	5	1.7
ver79	6	2.9	4.5	1.5
ver80	5.7	2.6	3.5	1
ver81	5.5	2.4	3.8	1.1
ver82	5.5	2.4	3.7	1
ver83	5.8	2.7	3.9	1.2
ver84	6	2.7	5.1	1.6
ver85	5.4	3	4.5	1.5
ver86	6	3.4	4.5	1.6
ver87	6.7	3.1	4.7	1.5
ver88	6.3	2.3	4.4	1.3
ver89	5.6	3	4.1	1.3
ver90	5.5	2.5	4	1.3
ver91	5.5	2.6	4.4	1.2
ver92	6.1	3	4.6	1.4
ver93	5.8	2.6	4	1.2
ver94	5	2.3	3.3	1
ver95	5.6	2.7	4.2	1.3
ver96	5.7	3	4.2	1.2
ver97	5.7	2.9	4.2	1.3
ver98	6.2	2.9	4.3	1.3
ver99	5.1	2.5	3	1.1
ver100	5.7	2.8	4.1	1.3
vir101	6.3	3.3	6	2.5
vir102	5.8	2.7	5.1	1.9
vir103	7.1	3	5.9	2.1
vir104	6.3	2.9	5.6	1.8
vir105	6.5	3	5.8	2.2
vir106	7.6	3	6.6	2.1
vir107	4.9	2.5	4.5	1.7
vir108	7.3	2.9	6.3	1.8
vir109	6.7	2.5	5.8	1.8
vir110	7.2	3.6	6.1	2.5
vir111	6.5	3.2	5.1	2
vir112	6.4	2.7	5.3	1.9
vir113	6.8	3	5.5	2.1
vir114	5.7	2.5	5	2
vir115	5.8	2.8	5.1	2.4
vir116	6.4	3.2	5.3	2.3
vir117	6.5	3	5.5	1.8
vir118	7.7	3.8	6.7	2.2
vir119	7.7	2.6	6.9	2.3
vir120	6	2.2	5	1.5
vir121	6.9	3.2	5.7	2.3
vir122	5.6	2.8	4.9	2
vir123	7.7	2.8	6.7	2
vir124	6.3	2.7	4.9	1.8
vir125	6.7	3.3	5.7	2.1
vir126	7.2	3.2	6	1.8
vir127	6.2	2.8	4.8	1.8
vir128	6.1	3	4.9	1.8
vir129	6.4	2.8	5.6	2.1
vir130	7.2	3	5.8	1.6
vir131	7.4	2.8	6.1	1.9
vir132	7.9	3.8	6.4	2
vir133	6.4	2.8	5.6	2.2
vir134	6.3	2.8	5.1	1.5
vir135	6.1	2.6	5.6	1.4
vir136	7.7	3	6.1	2.3
vir137	6.3	3.4	5.6	2.4
vir138	6.4	3.1	5.5	1.8
vir139	6	3	4.8	1.8
vir140	6.9	3.1	5.4	2.1
vir141	6.7	3.1	5.6	2.4
vir142	6.9	3.1	5.1	2.3
vir143	5.8	2.7	5.1	1.9
vir144	6.8	3.2	5.9	2.3
vir145	6.7	3.3	5.7	2.5
vir146	6.7	3	5.2	2.3
vir147	6.3	2.5	5	1.9
vir148	6.5	3	5.2	2
vir149	6.2	3.4	5.4	2.3
vir150	5.9	3	5.1	1.8