,ankleshoe,pendigits,satimage,segmentation,waveform,winequality-white
KNN,"0,45","0,99","0,86","0,97","0,83","0,23"
DT,"0,50","0,94","0,74","0,85","0,72","0,18"
GNB,"0,50","0,88","0,76","0,77","0,78","0,15"
BNB,"0,50","0,69","0,28","0,48","0,29","0,17"
LR,"0,50","0,95","0,74","0,91","0,87","0,19"
LSVM,"0,50","0,99","0,82","0,92","0,86","0,15"
RSVM,"0,50","1,00","0,87","0,95","0,85","0,19"
KNN+CLU,"0,42","0,94","0,85","0,96","0,83","0,23"
DT+CLU,"0,39","0,89","0,76","0,84","0,72","0,18"
GNB+CLU,"0,39","0,86","0,76","0,76","0,78","0,15"
BNB+CLU,"0,30","0,69","0,28","0,54","0,29","0,17"
LR+CLU,"0,37","0,91","0,74","0,89","0,87","0,19"
LSVM+CLU,"0,37","0,93","0,81","0,88","0,86","0,16"
RSVM+CLU,"0,40","0,95","0,85","0,93","0,85","0,19"
,,,,,,
(CLF+CLU) - CLF,,,,,,
KNN ,"-0,03","-0,05","-0,01","-0,01","0,00","0,00"
DT,"-0,11","-0,05","0,02","-0,01","0,00","0,00"
GNB,"-0,11","-0,02","0,00","-0,01","0,00","0,00"
BNB,"-0,20","0,00","0,00","0,06","0,00","0,00"
LR,"-0,13","-0,04","0,00","-0,02","0,00","0,00"
LSVM,"-0,13","-0,06","-0,01","-0,04","0,00","0,01"
RSVM,"-0,10","-0,05","-0,02","-0,02","0,00","0,00"