-2.99,2.52,1.00
-1.98,3.13,1.00
-4.66,-5.31,0.00
-1.25,0.55,1.00
-3.21,0.34,1.00
2.11,3.96,1.00
2.92,5.41,1.00
-2.47,-6.84,0.00
5.00,5.47,0.00
-4.08,-5.90,0.00
3.02,8.47,0.00
2.66,8.00,0.00
-4.98,-0.04,1.00
1.44,6.40,0.00
2.73,2.90,1.00
-1.63,-2.58,0.00
2.89,3.82,1.00
3.48,4.05,1.00
0.87,4.16,1.00
-1.63,-0.78,1.00
2.94,3.14,1.00
-0.78,3.84,1.00
-2.13,-1.41,1.00
-3.42,-2.04,0.00
4.31,8.79,0.00
2.41,2.62,1.00
-2.05,3.46,1.00
3.47,2.92,1.00
-1.47,-5.37,0.00
-2.51,-3.62,0.00
-3.33,1.71,1.00
-4.07,1.00,1.00
0.81,-4.82,0.00
-0.79,-5.31,0.00
-3.80,0.18,1.00
6.31,3.99,1.00
5.40,5.15,1.00
4.78,3.84,1.00
-1.06,0.45,1.00
-2.36,-3.27,0.00
-3.40,-0.20,1.00
-5.22,1.45,1.00
3.86,9.61,0.00
-2.55,2.77,1.00
-4.07,2.70,1.00
3.61,3.97,1.00
2.31,2.48,1.00
-1.88,-3.44,0.00
7.27,6.58,0.00
4.66,8.10,0.00
-1.45,-4.54,0.00
-3.44,0.12,1.00
4.06,8.39,0.00
4.18,8.84,0.00
2.28,4.29,1.00
1.56,8.98,0.00
4.57,8.51,0.00
-1.72,-2.92,0.00
-3.95,-2.01,0.00
3.78,4.66,1.00
-1.83,0.34,1.00
5.59,5.74,1.00
6.81,7.42,0.00
2.87,5.20,1.00
-5.08,0.48,1.00
-3.28,0.57,1.00
4.31,5.47,0.00
-2.81,2.73,1.00
6.02,5.03,1.00
0.38,-5.57,0.00
-2.73,-0.70,1.00
-5.14,-4.61,0.00
-0.61,-1.86,1.00
-2.64,-2.92,0.00
5.45,8.84,0.00
3.59,3.56,1.00
2.43,5.62,1.00
-5.18,-4.24,0.00
3.60,6.25,0.00
4.81,8.28,0.00
-4.04,-4.57,0.00
-4.38,2.65,1.00
-2.95,1.52,1.00
4.00,3.70,1.00
2.70,6.27,1.00
-2.53,2.98,1.00
4.00,9.01,0.00
3.88,6.97,0.00
4.51,5.27,1.00
0.84,1.96,1.00
-4.60,-3.06,0.00
-1.75,-5.86,0.00
-4.19,-5.95,0.00
3.56,7.99,0.00
4.67,8.47,0.00
5.85,3.77,1.00
1.33,7.11,0.00
2.73,4.83,1.00
5.87,5.87,1.00
5.40,8.46,0.00
1.35,0.19,1.00
2.61,5.24,1.00
3.89,8.24,0.00
-2.30,-2.77,0.00
5.45,6.27,1.00
3.20,8.28,0.00
7.47,4.34,1.00
-4.81,-3.35,0.00
-3.13,0.39,1.00
3.43,7.37,0.00
-3.64,-1.80,0.00
-1.26,-5.73,0.00
4.64,2.53,1.00
3.68,7.28,0.00
4.04,2.29,1.00
-0.76,-5.79,0.00
3.47,5.65,1.00
-3.47,-4.59,0.00
-3.76,-2.34,0.00
3.34,4.74,1.00
-2.24,0.97,1.00
-3.45,0.78,1.00
2.90,6.83,0.00
-1.46,2.49,1.00
3.58,3.24,1.00
5.34,9.27,0.00
2.79,0.83,1.00
-3.45,-0.01,1.00
-0.36,1.70,1.00
4.16,10.14,0.00
4.39,10.18,0.00
-2.35,1.16,1.00
4.25,6.37,1.00
4.16,4.68,1.00
5.59,6.17,0.00
-4.36,-2.02,1.00
-3.49,-0.28,1.00
-3.19,-4.72,0.00
1.39,8.03,0.00
-2.67,-3.41,0.00
-0.98,1.58,1.00
3.42,9.50,0.00
-2.72,-0.53,1.00
-1.39,-5.43,0.00
-1.84,-4.90,0.00
-2.83,-2.95,0.00
-3.38,0.46,1.00
-2.42,-4.40,0.00
-3.24,-4.16,0.00
2.89,4.35,1.00
-2.21,-5.33,0.00
4.95,6.17,0.00
2.11,5.30,1.00
5.85,8.55,0.00
-4.05,1.60,1.00
-3.66,2.13,1.00
-4.66,-1.13,1.00
-2.31,-5.19,0.00
-2.47,0.15,1.00
-2.91,1.08,1.00
-4.84,-5.01,0.00
-3.76,1.81,1.00
-4.42,-2.57,0.00
-4.45,-3.73,0.00
4.85,5.27,1.00
2.28,4.36,1.00
3.63,6.17,1.00
2.90,7.42,0.00
-4.67,-4.20,0.00
0.60,1.97,1.00
-0.97,-3.19,0.00
-2.63,1.69,1.00
4.18,1.57,1.00
4.80,6.49,1.00
-2.93,5.91,1.00
-3.14,-5.12,0.00
-1.72,-3.96,0.00
-3.35,0.64,1.00
3.60,4.04,1.00
-3.20,1.76,1.00
3.94,5.05,0.00
4.82,8.22,0.00
5.16,7.22,0.00
-2.61,-6.20,0.00
2.56,10.46,0.00
5.93,9.58,0.00
6.13,4.48,1.00
-5.31,-3.13,0.00
3.73,5.17,0.00
4.95,9.28,0.00
-4.23,2.96,1.00
3.26,10.17,0.00
-3.95,-4.94,0.00
-1.06,-1.82,1.00
-4.61,-1.25,0.00
4.79,3.24,1.00
-3.20,0.66,1.00
3.64,3.09,1.00
-4.10,2.46,1.00
-4.09,2.13,1.00
-2.72,1.04,1.00
5.42,11.29,0.00
-4.33,-2.86,0.00
-1.18,-1.32,0.00
3.60,9.56,0.00
3.16,8.86,0.00
-3.39,-0.05,1.00
-2.85,-2.69,0.00
4.26,5.21,1.00
-0.50,1.01,1.00
4.13,6.61,0.00
1.64,5.11,0.00
-4.28,-5.08,0.00
-0.86,-4.44,0.00
5.71,2.95,1.00
-2.83,5.13,1.00
3.79,8.02,0.00
-2.15,-0.71,1.00
1.30,4.91,1.00
5.00,8.70,0.00
1.26,8.48,0.00
2.71,8.77,0.00
-4.49,-4.86,0.00
-4.60,2.36,1.00
-3.53,-5.16,0.00
2.95,8.14,0.00
1.35,9.31,0.00
4.39,8.67,0.00
-2.99,-0.52,0.00
4.42,2.71,1.00
-2.53,1.03,1.00
2.92,3.90,1.00
4.91,9.00,0.00
3.54,6.03,1.00
0.08,-0.35,1.00
-1.77,1.75,1.00
-1.75,-4.09,0.00
-1.75,-5.29,0.00
4.19,8.93,0.00
4.09,2.17,1.00
3.36,6.18,0.00
-2.76,-6.65,0.00
2.16,0.29,1.00
4.80,3.98,1.00
4.98,2.59,1.00
4.62,9.38,0.00
3.37,9.73,0.00
6.12,9.52,0.00
5.32,8.19,0.00
5.48,9.33,0.00
3.26,3.08,1.00
-4.83,-5.25,0.00
-2.53,1.03,1.00
-3.37,1.63,1.00
-3.33,-2.00,0.00
4.28,8.18,0.00
-6.85,-0.34,1.00
-0.41,-0.09,1.00
-4.62,-5.12,0.00
-4.46,0.64,1.00
6.05,8.59,0.00
4.11,9.94,0.00
3.58,8.49,0.00
4.84,5.04,1.00
-4.40,-4.25,0.00
4.29,4.07,1.00
-2.90,2.61,1.00
-4.10,-2.09,0.00
3.17,3.22,1.00
-2.60,-5.17,0.00
-3.76,1.49,1.00
6.04,6.63,0.00
0.88,3.75,1.00
5.48,6.08,1.00
2.63,9.73,0.00
-2.21,-4.28,0.00
4.98,3.52,1.00
4.57,4.54,1.00
0.89,6.00,1.00
2.41,4.74,1.00
-4.51,0.83,1.00
5.07,11.59,0.00
2.14,7.95,0.00
-2.88,-3.74,0.00
5.52,8.42,0.00
-2.74,-0.65,1.00
5.21,4.75,1.00
3.65,4.36,1.00
2.49,8.89,0.00
3.21,4.03,1.00
-2.12,2.22,1.00
4.75,10.80,0.00
4.92,8.02,0.00
4.61,6.48,1.00
2.75,3.07,1.00
2.87,4.02,1.00
4.31,5.68,1.00
4.54,9.13,0.00
4.43,5.49,1.00
-4.65,0.84,1.00
-0.57,-2.03,1.00
-4.96,-4.78,0.00
-5.03,-1.77,0.00
-2.46,-2.84,0.00
-0.58,1.21,1.00
4.68,7.90,0.00
3.00,7.36,0.00
-3.09,3.04,1.00
-3.16,-3.63,0.00
4.05,3.22,1.00
-3.46,2.15,1.00
5.40,8.31,0.00
4.25,4.01,1.00
-4.09,-6.41,0.00
3.03,6.71,1.00
-4.08,-4.75,0.00
3.04,2.65,1.00
4.91,8.28,0.00
-5.64,-3.74,0.00
6.41,7.54,0.00
-1.01,-4.09,0.00
-4.88,0.83,1.00
2.89,5.05,1.00
-1.52,-3.64,0.00
6.30,6.76,0.00
4.20,5.82,0.00
3.01,5.72,1.00
6.46,7.92,0.00
-4.12,-2.35,1.00
-3.41,-2.24,0.00
3.75,7.82,0.00
-3.92,0.13,1.00
3.22,12.12,0.00
5.83,6.65,1.00
-2.78,-3.68,0.00
-2.31,-4.73,0.00
2.68,7.95,0.00
-1.86,0.87,1.00
4.11,7.48,0.00
-3.09,0.82,1.00
2.58,3.37,1.00
4.64,2.67,1.00
-4.30,-4.03,0.00
1.70,0.61,1.00
-3.88,-1.87,0.00
6.25,6.78,0.00
3.05,6.42,0.00
-3.67,-4.93,0.00
-1.26,-7.90,0.00
-3.49,-2.34,0.00
-4.42,1.45,1.00
-2.53,3.26,1.00
3.81,6.38,1.00
-4.49,-1.07,1.00
5.18,6.34,0.00
-5.85,-3.36,0.00
-3.81,-2.80,0.00
3.25,7.68,0.00
-3.20,-4.04,0.00
-4.07,2.41,1.00
-2.54,-1.89,0.00
2.87,2.33,1.00
4.99,4.28,1.00
-1.07,-4.90,0.00
-4.42,-1.83,0.00
-2.33,-4.92,0.00
-5.49,0.77,1.00
3.68,8.30,0.00
3.09,8.31,0.00
4.28,9.32,0.00
-2.86,-2.31,0.00
-3.37,-4.00,0.00
-1.14,-3.26,0.00
-3.94,-6.79,0.00
-1.81,-2.64,0.00
-4.79,-4.87,0.00
-2.65,-1.16,1.00
3.46,3.85,1.00
-4.28,-4.92,0.00
-3.40,-0.35,1.00
2.63,5.48,0.00
4.86,6.24,1.00
-3.29,3.09,1.00
-3.06,1.72,1.00
1.97,3.65,1.00
5.37,4.16,1.00
3.47,7.52,0.00
2.06,5.52,1.00
4.57,11.62,0.00
-2.34,1.44,1.00
5.42,10.17,0.00
3.35,1.52,1.00
3.62,5.11,1.00
-4.23,2.63,1.00
4.81,7.07,0.00
3.73,7.39,0.00
-0.36,-4.38,0.00
2.44,3.64,1.00
3.61,4.99,1.00
5.87,7.04,0.00
-1.31,-0.12,0.00
-2.29,2.23,1.00
-5.10,0.97,1.00
6.24,4.14,1.00
-2.14,-3.68,0.00
2.41,4.23,1.00
-3.23,-1.24,1.00
2.49,3.69,1.00
2.26,5.43,1.00
-1.73,-0.85,1.00
-1.27,-1.77,0.00
-1.99,0.24,1.00
2.68,8.01,0.00
-4.23,-4.14,0.00
3.27,9.41,0.00
-1.32,-7.86,0.00
2.66,5.93,1.00
-2.04,0.51,1.00
3.23,8.34,0.00
3.02,4.61,1.00
-4.14,-2.55,0.00
-3.38,-1.62,0.00
-2.82,-1.54,0.00
-1.79,1.77,1.00
-2.51,1.71,1.00
4.34,9.67,0.00
2.20,7.39,0.00
-1.50,1.89,1.00
5.62,7.72,0.00
-4.22,-3.69,0.00
-6.26,-2.00,0.00
5.66,2.77,1.00
-5.48,4.76,1.00
-1.45,-2.58,0.00
-4.28,-2.06,0.00
-3.07,-4.93,0.00
-3.79,0.30,1.00
4.45,10.64,0.00
-3.66,0.31,1.00
4.74,5.44,1.00
3.71,6.93,0.00
5.87,9.93,0.00
3.06,7.61,0.00
3.50,7.83,0.00
-2.92,-5.32,0.00
-1.98,-5.27,0.00
2.21,5.77,0.00
-4.81,1.81,1.00
2.97,4.19,1.00
4.54,3.44,1.00
3.41,3.52,1.00
-4.95,-1.27,0.00
-3.06,-1.08,0.00
2.17,3.29,1.00
-4.30,-4.87,0.00
-2.39,0.94,1.00
-1.43,-1.49,1.00
-3.65,-4.91,0.00
4.78,1.70,1.00
6.04,5.59,1.00
4.94,6.00,1.00
5.06,8.84,0.00
3.68,3.33,1.00
-3.29,0.55,1.00
5.12,3.76,1.00
-2.55,-0.20,1.00
1.78,0.86,1.00
1.19,6.32,0.00
-3.47,1.56,1.00
2.52,7.72,0.00
2.50,2.74,1.00
6.16,7.52,0.00
-2.49,1.78,1.00
-3.37,2.31,1.00
2.19,5.58,1.00
-2.60,0.67,1.00
-2.36,-1.65,1.00
5.21,6.32,1.00
3.07,3.13,1.00
-5.13,1.62,1.00
-3.69,2.06,1.00
-1.89,2.86,1.00
-1.13,2.05,1.00
3.83,8.06,0.00
-0.94,-6.29,0.00
-3.58,-2.25,0.00
3.79,8.07,0.00
-2.46,-6.90,0.00
-3.26,-3.97,0.00
-1.33,-3.44,0.00
3.35,8.88,0.00
3.45,6.33,0.00
6.56,6.65,0.00
-3.66,-0.18,1.00
-3.58,2.88,1.00
3.79,6.36,1.00
-4.39,-1.50,1.00
-3.37,-4.96,0.00
-1.78,0.89,1.00
7.50,4.73,1.00
