-2.22,-1.86,0.00
2.89,-1.52,1.00
-1.39,0.13,1.00
-2.97,-0.59,1.00
-2.88,-0.60,0.00
-4.09,2.43,1.00
3.71,-2.16,1.00
-0.84,0.54,1.00
1.45,-1.67,1.00
-2.04,-3.22,0.00
4.00,-0.33,0.00
0.23,-0.70,0.00
3.04,-1.60,1.00
2.47,-1.63,1.00
-5.03,-1.41,0.00
-1.66,1.38,1.00
-3.39,1.62,1.00
-0.71,0.55,1.00
-0.89,-0.48,1.00
4.54,-0.72,0.00
1.27,-1.01,1.00
4.11,2.94,0.00
3.57,2.28,0.00
-4.12,-1.92,0.00
4.08,-0.03,0.00
2.93,2.39,0.00
-1.04,2.40,1.00
-2.79,-3.54,0.00
-2.91,-0.82,0.00
-1.67,-1.75,0.00
3.87,-1.23,1.00
-3.17,0.65,1.00
4.48,0.22,0.00
4.89,-1.99,1.00
-0.91,-0.85,0.00
4.55,-2.17,1.00
-1.36,-1.08,0.00
2.75,0.92,0.00
-2.54,-2.84,0.00
-1.86,-1.87,0.00
-0.33,-2.44,0.00
5.26,3.27,0.00
3.48,-3.13,1.00
3.69,-2.72,1.00
-3.05,-4.20,0.00
-3.53,-0.53,1.00
-3.28,0.59,1.00
-2.89,3.08,1.00
0.79,-3.64,1.00
4.23,1.92,0.00
2.19,-2.68,1.00
-0.98,-0.17,1.00
0.85,-0.64,0.00
-2.02,2.07,1.00
-2.24,-0.59,0.00
2.98,-0.62,1.00
2.83,-2.92,1.00
-2.78,-2.24,0.00
-1.77,1.19,1.00
-0.33,-1.77,0.00
1.44,1.61,0.00
-2.71,-0.08,1.00
3.20,2.92,0.00
3.02,-2.89,1.00
-3.38,1.34,1.00
1.34,-1.59,1.00
3.80,1.67,0.00
-1.77,-2.65,0.00
0.66,-1.74,1.00
3.03,-0.02,1.00
-4.30,-1.82,0.00
-4.73,2.35,1.00
-2.34,1.50,1.00
5.43,-0.38,0.00
4.79,-2.72,1.00
0.30,-0.88,1.00
-1.37,-0.18,0.00
-2.75,-0.28,0.00
2.12,-3.47,1.00
1.64,0.47,0.00
1.71,-3.00,1.00
-1.95,-3.67,0.00
1.74,-3.01,1.00
-1.31,1.22,1.00
-1.01,-1.00,0.00
-2.40,1.47,1.00
-1.32,-1.12,0.00
1.82,-1.15,0.00
4.17,1.36,0.00
4.87,2.94,0.00
3.38,-3.49,1.00
1.38,1.90,0.00
4.22,0.51,1.00
-1.54,1.19,1.00
4.86,-1.06,0.00
3.40,-2.44,1.00
-2.31,0.66,1.00
2.68,-1.36,1.00
2.79,-2.11,1.00
-3.76,1.23,1.00
1.25,1.96,0.00
1.37,-1.73,0.00
-4.29,-0.93,0.00
-2.35,0.90,1.00
-1.91,-0.79,1.00
-2.12,1.69,1.00
3.90,1.28,0.00
-2.92,-2.04,0.00
3.08,1.90,0.00
5.92,-1.92,1.00
-2.70,-2.35,0.00
3.49,2.43,0.00
4.76,2.81,0.00
-1.05,-0.62,0.00
1.98,1.19,0.00
2.09,2.25,0.00
4.00,0.43,0.00
-2.43,-1.43,1.00
3.44,1.15,0.00
-1.25,1.36,1.00
-1.11,-1.66,0.00
-3.84,-0.95,0.00
3.74,-2.31,1.00
-1.93,0.16,0.00
4.33,1.40,0.00
4.18,-2.26,1.00
5.01,-0.18,1.00
1.24,1.38,0.00
-2.61,1.10,1.00
2.10,-0.49,1.00
-0.84,-0.67,0.00
2.98,-0.64,0.00
-1.68,0.48,1.00
3.30,1.08,0.00
-1.97,0.88,1.00
2.26,-1.51,1.00
3.62,0.90,0.00
-1.57,0.98,1.00
0.95,-1.99,1.00
-2.14,-1.47,0.00
2.97,-0.72,0.00
4.34,-1.35,0.00
-2.13,-0.10,0.00
-2.10,-2.67,0.00
3.70,-1.98,1.00
-3.23,-1.65,0.00
2.10,-4.20,1.00
-3.02,-2.22,0.00
2.36,-2.06,1.00
-3.15,1.47,1.00
0.13,-2.61,0.00
-3.40,-0.53,1.00
4.23,2.61,0.00
-0.42,1.12,1.00
2.75,0.25,0.00
2.91,0.64,0.00
-2.16,1.15,1.00
3.73,-0.88,1.00
-1.20,-0.00,1.00
3.37,-0.69,0.00
-1.95,3.91,1.00
3.91,2.19,0.00
0.58,-2.80,1.00
4.57,0.43,0.00
1.71,0.74,0.00
-1.55,-3.69,0.00
3.51,-0.03,0.00
3.71,0.87,0.00
1.09,-1.62,1.00
-0.40,-1.55,0.00
4.78,0.13,0.00
-2.30,-2.89,0.00
1.71,2.05,0.00
-0.49,-1.47,0.00
2.46,-2.41,1.00
-3.61,-2.49,0.00
-0.71,0.07,1.00
3.70,-0.74,1.00
2.87,-2.95,1.00
-2.62,1.68,1.00
-2.52,-1.38,0.00
3.80,1.57,0.00
-2.26,1.18,1.00
-3.54,0.29,1.00
2.78,1.11,0.00
3.32,1.21,0.00
-2.85,-1.23,0.00
1.82,1.49,0.00
-3.09,-1.92,0.00
3.53,1.23,0.00
-2.20,-1.11,0.00
5.33,-3.67,1.00
2.71,-2.36,1.00
-2.17,0.37,1.00
0.04,1.20,1.00
0.66,-0.68,1.00
2.94,-0.60,0.00
-0.57,0.49,1.00
3.10,-1.15,1.00
3.92,-0.60,1.00
1.62,-1.00,1.00
-1.44,-0.48,0.00
-4.60,-2.83,0.00
1.29,0.50,1.00
4.23,-2.65,1.00
1.05,0.27,0.00
1.24,0.72,0.00
3.69,-3.43,1.00
-1.17,-1.04,1.00
3.36,0.01,0.00
1.01,-1.50,1.00
3.50,-2.46,1.00
3.26,0.16,0.00
2.56,0.21,0.00
4.75,1.52,0.00
-2.22,1.80,1.00
3.73,-3.36,1.00
-2.16,-3.72,0.00
-1.35,-1.94,0.00
5.51,0.92,0.00
2.16,-2.18,0.00
3.78,-2.21,1.00
2.09,1.94,0.00
2.56,2.61,0.00
-0.31,4.61,1.00
2.27,-2.66,1.00
-3.37,1.23,1.00
2.44,2.80,0.00
-1.52,0.94,1.00
3.45,0.86,0.00
-2.31,0.95,1.00
-2.51,-0.14,1.00
-2.64,-0.40,0.00
3.39,-1.36,0.00
2.37,-0.09,0.00
1.59,-0.81,1.00
1.14,-3.41,1.00
0.80,0.27,1.00
-3.80,-0.98,1.00
-3.93,0.48,1.00
1.44,2.90,0.00
3.67,-0.22,1.00
3.28,0.51,0.00
-2.01,-1.72,0.00
4.57,-2.09,1.00
-1.95,-2.59,1.00
-1.25,-0.94,1.00
3.82,0.60,0.00
2.97,1.36,0.00
-3.51,-0.63,0.00
-3.70,2.16,1.00
2.86,-2.87,1.00
3.40,0.87,0.00
-3.80,-1.36,0.00
3.68,2.82,0.00
4.57,0.77,0.00
3.08,-1.85,1.00
-2.73,-1.16,0.00
3.78,1.80,0.00
-2.18,1.31,1.00
4.81,0.27,0.00
1.40,-1.32,1.00
-4.24,-1.70,0.00
2.40,-1.50,1.00
3.43,-1.50,1.00
-0.49,0.42,1.00
-3.77,-3.18,0.00
2.28,1.36,0.00
5.52,-2.24,1.00
1.52,0.25,0.00
-3.26,0.05,1.00
2.41,0.83,0.00
2.08,1.19,0.00
-2.99,-0.67,0.00
5.20,0.37,0.00
3.90,0.25,0.00
-1.92,-0.93,1.00
0.03,-1.71,0.00
-1.73,-0.68,0.00
-3.23,1.87,1.00
-0.92,0.80,1.00
-0.43,-1.80,1.00
-1.37,2.12,1.00
2.65,-1.27,0.00
2.22,-0.21,0.00
-1.81,1.64,1.00
-1.81,1.59,1.00
-2.02,-0.17,1.00
-2.45,-2.90,0.00
3.44,-1.80,1.00
3.69,-1.63,1.00
-4.33,1.32,1.00
1.98,1.72,0.00
1.46,-0.84,1.00
-2.88,-2.16,0.00
-0.48,-2.04,0.00
1.88,-1.11,1.00
-2.58,0.33,0.00
4.41,1.22,0.00
1.77,1.80,0.00
-4.46,-1.57,0.00
2.32,-1.15,1.00
4.04,2.63,0.00
-3.67,-0.95,0.00
-2.06,-2.06,0.00
-5.23,-1.09,0.00
3.02,-2.01,1.00
1.43,-3.03,1.00
5.23,-1.21,1.00
-2.02,-1.13,1.00
-1.33,-2.55,0.00
-0.83,-3.11,0.00
-2.45,1.55,1.00
2.88,1.36,0.00
-2.52,-3.42,0.00
-0.80,-2.09,0.00
-2.21,-2.32,0.00
3.37,1.69,0.00
3.70,-2.44,1.00
-2.21,-2.68,0.00
3.83,-0.42,0.00
-1.09,-1.99,0.00
2.73,1.55,0.00
0.73,-3.07,1.00
1.32,-1.99,1.00
-2.01,1.39,1.00
-3.71,-1.13,1.00
3.40,-0.06,0.00
1.39,-0.78,0.00
3.51,-1.37,1.00
2.47,-1.11,1.00
5.15,-1.97,1.00
-0.98,1.25,1.00
3.13,0.46,0.00
-0.46,2.42,1.00
-1.21,-0.08,0.00
-1.85,-0.38,1.00
2.38,-1.73,1.00
-0.25,-1.56,0.00
-2.05,-1.04,0.00
-1.86,-1.79,0.00
-1.74,-0.48,0.00
2.14,-0.88,1.00
-2.22,-1.39,0.00
-1.95,-2.17,0.00
-0.51,0.32,1.00
3.68,-2.55,1.00
-3.74,-0.09,1.00
2.60,1.39,0.00
4.48,-1.15,1.00
-3.64,-0.35,0.00
3.70,0.72,0.00
-3.02,-2.29,0.00
-0.73,3.46,1.00
-1.22,1.80,1.00
2.36,-0.18,0.00
1.01,0.62,0.00
1.56,-3.10,1.00
4.08,-1.29,1.00
0.73,-2.92,1.00
1.75,-0.56,1.00
-0.30,3.11,1.00
-1.38,1.60,1.00
1.90,-1.29,1.00
2.24,-0.86,1.00
-2.11,-1.57,0.00
3.75,2.53,0.00
-1.68,0.63,1.00
2.11,0.23,0.00
2.80,-0.23,1.00
3.66,2.09,0.00
3.18,2.11,0.00
2.09,-0.38,0.00
-2.73,-1.40,0.00
-2.41,-0.24,0.00
4.45,-0.62,0.00
1.58,-2.19,1.00
-1.78,-2.63,0.00
1.69,-2.16,1.00
-1.31,-4.94,0.00
-2.24,2.36,1.00
-2.51,-3.89,0.00
-1.94,0.04,0.00
-2.76,0.39,1.00
3.38,-1.46,1.00
2.36,0.34,0.00
-3.12,-2.05,0.00
-2.51,0.99,1.00
-0.37,-2.27,0.00
-2.67,0.45,0.00
2.24,0.17,0.00
-3.89,0.56,1.00
-3.38,-1.68,0.00
4.85,1.50,0.00
2.73,-0.88,1.00
-1.90,0.90,1.00
2.76,-2.23,1.00
2.94,1.31,0.00
-3.63,-4.19,0.00
2.56,0.40,1.00
-0.32,2.30,1.00
-4.58,-1.43,1.00
-3.82,-0.58,0.00
-3.76,0.95,1.00
1.29,0.61,1.00
2.53,1.44,0.00
-1.86,0.21,0.00
-0.68,-0.53,0.00
1.78,-2.87,1.00
1.80,-2.46,1.00
-1.68,0.07,1.00
-2.25,-3.56,0.00
2.94,-0.82,0.00
-1.27,-1.70,0.00
-1.76,0.27,0.00
-2.91,-1.94,0.00
-4.15,1.01,1.00
-0.02,1.69,0.00
-2.96,-0.68,1.00
-0.00,-1.69,1.00
3.87,-1.10,1.00
-3.42,0.05,1.00
2.47,-0.45,1.00
3.19,2.43,0.00
4.38,-3.94,1.00
-0.10,2.52,1.00
2.66,2.43,0.00
-3.85,-2.55,0.00
1.68,-1.71,1.00
0.63,1.75,0.00
-2.07,-1.64,0.00
3.95,-3.18,1.00
-1.15,1.21,1.00
3.03,-1.45,1.00
2.49,1.44,0.00
-1.76,-0.87,0.00
2.86,2.33,0.00
-1.36,-1.47,0.00
-2.48,-2.31,0.00
2.66,-3.00,1.00
-1.25,-2.31,0.00
-0.00,1.31,1.00
-1.45,-2.78,0.00
2.25,-1.25,1.00
3.01,-2.95,1.00
1.78,-2.43,1.00
2.83,-0.60,1.00
-1.76,0.98,1.00
-3.33,1.34,1.00
-3.78,3.01,1.00
-1.86,0.52,1.00
-1.50,2.61,1.00
2.72,1.69,0.00
-0.97,-1.53,1.00
-2.53,-0.02,1.00
1.84,-2.59,1.00
-3.32,-0.27,0.00
-1.40,2.87,1.00
-1.19,-3.78,0.00
1.93,0.63,0.00
3.03,-2.01,1.00
-1.15,-2.03,0.00
-0.57,-3.83,0.00
-0.67,1.52,1.00
1.99,-2.93,1.00
-2.66,-0.79,1.00
-2.76,0.05,1.00
3.38,-3.22,1.00
3.14,-2.14,1.00
2.33,-4.01,1.00
2.62,0.71,0.00
-0.16,-1.49,0.00
2.85,-0.21,1.00
-1.62,2.97,1.00
-0.02,0.71,1.00
-2.10,2.14,1.00
-2.41,-2.21,0.00
-1.96,-0.92,0.00
-3.82,-2.02,0.00
2.31,0.27,0.00
-2.74,-1.55,0.00
3.95,0.87,0.00
3.86,-0.69,1.00
0.02,-5.75,0.00
4.37,0.38,0.00
2.47,-2.60,1.00
1.08,-2.00,1.00
-0.70,0.91,1.00
1.86,1.07,0.00
1.92,1.99,0.00
-3.29,-0.93,0.00
-3.63,-0.41,1.00
-1.65,-5.65,0.00
-2.36,-1.76,0.00
3.71,-3.03,1.00
-0.40,-0.95,1.00
4.19,0.12,0.00
-1.41,1.58,1.00
4.29,0.71,0.00
-0.86,1.14,1.00
-0.96,-0.72,1.00
2.29,1.07,0.00
-2.68,1.17,1.00
1.26,-2.98,1.00
4.44,3.06,0.00
1.07,-1.66,1.00
-2.84,1.62,1.00
2.03,-0.51,1.00
1.73,1.40,0.00
3.16,-3.21,1.00
2.60,-4.59,1.00
-2.72,1.72,1.00
-4.39,2.51,1.00
4.37,-2.36,1.00
4.31,0.29,0.00
3.10,-3.50,1.00
-1.20,-2.10,0.00
3.61,2.68,0.00
3.45,-2.85,1.00
3.30,-2.05,1.00
-2.21,1.08,1.00
3.57,1.74,0.00
4.25,-0.32,0.00
-2.06,3.10,1.00
-0.59,-4.38,0.00
3.31,1.60,0.00
-2.88,-1.89,0.00
-1.92,-3.26,0.00
0.15,-1.56,0.00
3.73,2.27,0.00
-3.07,0.56,1.00
-2.18,-0.06,1.00
-0.41,-0.37,1.00
2.31,-1.40,0.00
-2.20,0.14,1.00
2.18,-2.21,1.00
-1.45,2.03,1.00
4.75,-0.69,1.00
-2.54,0.22,0.00
1.12,-1.41,1.00
-2.84,0.51,0.00
-1.53,2.46,1.00
-0.12,-2.87,0.00
-0.09,-4.70,0.00
-1.79,2.71,1.00
2.98,2.82,0.00
-4.74,1.60,1.00
-0.64,-2.46,0.00
-1.81,-2.66,0.00
-0.85,-0.31,1.00
0.30,-0.26,0.00
-2.45,1.99,1.00
-2.90,-2.09,0.00
-2.72,2.44,1.00
-1.44,-0.22,1.00
0.28,-3.31,1.00
5.81,0.25,0.00
4.63,-0.97,0.00
-2.63,-3.11,0.00
-2.00,-3.17,0.00
3.41,-2.22,1.00
2.50,-2.97,1.00
3.25,-2.25,1.00
-1.03,-3.40,0.00
-3.74,-1.35,1.00
-2.84,-1.21,0.00
3.99,-3.16,1.00
-2.02,0.58,1.00
3.23,-1.29,1.00
-4.06,0.84,1.00
-1.44,1.71,1.00
2.29,-3.28,1.00
1.09,-1.23,0.00
-2.15,-0.03,0.00
7.03,-1.41,0.00
2.93,-1.06,0.00
4.43,0.54,0.00
2.02,-2.02,1.00
-3.64,1.11,1.00
4.14,1.25,0.00
-2.00,-1.69,0.00
0.25,-0.33,1.00
-2.44,-1.30,0.00
4.56,-2.31,1.00
3.04,-3.41,1.00
-1.80,0.37,1.00
-3.33,0.82,0.00
2.81,-1.17,1.00
2.78,0.88,0.00
-3.27,-2.33,0.00
-2.32,-1.74,0.00
-1.10,2.01,1.00
1.83,-1.35,1.00
-2.38,-1.44,0.00
1.78,-1.89,1.00
-3.34,-0.12,0.00
2.84,-1.59,1.00
2.47,-2.93,1.00
-3.12,-2.14,0.00
2.94,2.36,0.00
